
<svg width="340" height="240"
xmlns="http://www.w3.org/2000/svg" xmlns:ev="http://www.w3.org/2001/xml-events" xmlns:xlink="http://www.w3.org/1999/xlink">

  <polyline points="120 61.5 217.984 61.5 123.035 180.231 220.738 180.06"
    stroke="rgb(0, 128, 129)"
    stroke-width="85"
    fill-opacity="0"
    stroke-linecap="square"
    stroke-linejoin="miter"></polyline>

  <polyline points="122 61.5 217.984 61.5 123.035 180.231 218.738 180.06"
    stroke="rgb(32, 177, 170)"
    stroke-width="45"
    fill-opacity="0"
    stroke-linecap="round"
    stroke-linejoin="round" ></polyline>

  <polyline points="111 61.5 217.984 61.5 123.035 180.231 229.738 180.06"
    stroke="rgb(255, 214, 0)"
    stroke-width="7"
    fill-opacity="0"
    stroke-linecap="butt"
    stroke-linejoin="bevel"></polyline>

</svg>
